Intro to R and RStudio
…
CSVs - Import online

Use the function read_csv() from the package readr**.

# Load the library first
library(readr)

df <- read_csv("https://data.ct.gov/api/views/iyru-82zq/rows.csv?accessType=DOWNLOAD")

df

# A tibble: 3,420 × 7
   FiscalYear MonthYear    Town    AdmMonth FYMonthOrder AdmYear MonthTotal
        <dbl> <chr>        <chr>      <dbl>        <dbl>   <dbl>      <dbl>
 1       2014 July-13      Ansonia        7            1    2013         42
 2       2014 August-13    Ansonia        8            2    2013         43
 3       2014 September-13 Ansonia        9            3    2013         39
 4       2014 October-13   Ansonia       10            4    2013         33
 5       2014 November-13  Ansonia       11            5    2013         38
 6       2014 December-13  Ansonia       12            6    2013         45
 7       2014 January-14   Ansonia        1            7    2014         35
 8       2014 February-14  Ansonia        2            8    2014         38
 9       2014 March-14     Ansonia        3            9    2014         45
10       2014 April-14     Ansonia        4           10    2014         46
# … with 3,410 more rows
…
