Wrangling Data
…
group_by()

Before we begin, update your code!

remotes::install_github("r-journalism/chjr", upgrade="always", quiet=TRUE)

Importing data

library(readr)

df <- read_csv("https://www.fema.gov/api/open/v2/DisasterDeclarationsSummaries.csv") 

df

# A tibble: 63,698 × 24
   femaDecla…¹ disas…² state decla…³ declarationDate     fyDec…⁴ incid…⁵ decla…⁶
   <chr>         <dbl> <chr> <chr>   <dttm>                <dbl> <chr>   <chr>  
 1 FM-5444-TX     5444 TX    FM      2022-07-19 00:00:00    2022 Fire    CHALK …
 2 FM-5436-NE     5436 NE    FM      2022-04-23 00:00:00    2022 Fire    ROAD 7…
 3 FM-5444-TX     5444 TX    FM      2022-07-19 00:00:00    2022 Fire    CHALK …
 4 FM-5436-NE     5436 NE    FM      2022-04-23 00:00:00    2022 Fire    ROAD 7…
 5 FM-5436-NE     5436 NE    FM      2022-04-23 00:00:00    2022 Fire    ROAD 7…
 6 FM-5435-AZ     5435 AZ    FM      2022-04-19 00:00:00    2022 Fire    CROOKS…
 7 FM-5434-AZ     5434 AZ    FM      2022-04-19 00:00:00    2022 Fire    TUNNEL…
 8 FM-5433-NM     5433 NM    FM      2022-04-12 00:00:00    2022 Fire    NOGAL …
 9 FM-5432-NM     5432 NM    FM      2022-04-12 00:00:00    2022 Fire    MCBRID…
10 FM-5431-NM     5431 NM    FM      2022-04-12 00:00:00    2022 Fire    HERMIT…
# … with 63,688 more rows, 16 more variables: ihProgramDeclared <dbl>,
#   iaProgramDeclared <dbl>, paProgramDeclared <dbl>, hmProgramDeclared <dbl>,
#   incidentBeginDate <dttm>, incidentEndDate <dttm>,
#   disasterCloseoutDate <dttm>, fipsStateCode <chr>, fipsCountyCode <chr>,
#   placeCode <dbl>, designatedArea <chr>, declarationRequestNumber <dbl>,
#   lastIAFilingDate <dttm>, hash <chr>, id <chr>, lastRefresh <dttm>, and
#   abbreviated variable names ¹​femaDeclarationString, ²​disasterNumber, …
…
count()

counted <- count(df, state)

counted

# A tibble: 59 × 2
   state     n
   <chr> <int>
 1 AK      318
 2 AL     1652
 3 AR     1593
 4 AS       76
 5 AZ      334
 6 CA     1470
 7 CO      646
 8 CT      255
 9 DC       23
10 DE       53
# … with 49 more rows

count() named column

counted <- count(df, state, name="disasters")

counted

# A tibble: 59 × 2
   state disasters
   <chr>     <int>
 1 AK          318
 2 AL         1652
 3 AR         1593
 4 AS           76
 5 AZ          334
 6 CA         1470
 7 CO          646
 8 CT          255
 9 DC           23
10 DE           53
# … with 49 more rows
…
arrange() in action

arrange(counted, disasters)

# A tibble: 59 × 2
   state disasters
   <chr>     <int>
 1 PW            1
 2 GU           19
 3 DC           23
 4 FM           31
 5 DE           53
 6 MH           53
 7 MP           63
 8 AS           76
 9 VI           80
10 HI          100
# … with 49 more rows

arrange() descending

arrange(counted, desc(disasters))

# A tibble: 59 × 2
   state disasters
   <chr>     <int>
 1 TX         5173
 2 MO         2704
 3 KY         2583
 4 VA         2524
 5 LA         2493
 6 OK         2474
 7 GA         2269
 8 FL         2245
 9 NC         2096
10 PR         1988
# … with 49 more rows
…
Without Pipes

counted <- count(df, state, name="disasters")
sorted_count <- arrange(counted, desc(disasters))

sorted_count

# A tibble: 59 × 2
   state disasters
   <chr>     <int>
 1 TX         5173
 2 MO         2704
 3 KY         2583
 4 VA         2524
 5 LA         2493
 6 OK         2474
 7 GA         2269
 8 FL         2245
 9 NC         2096
10 PR         1988
# … with 49 more rows

With Pipes

df %>% 
  count(state, name="disasters") %>% 
   arrange(desc(disasters))

# A tibble: 59 × 2
   state disasters
   <chr>     <int>
 1 TX         5173
 2 MO         2704
 3 KY         2583
 4 VA         2524
 5 LA         2493
 6 OK         2474
 7 GA         2269
 8 FL         2245
 9 NC         2096
10 PR         1988
# … with 49 more rows
…
Filtering data 2

df %>% 
  filter(incidentType=="Hurricane")

# A tibble: 12,946 × 24
   femaDecla…¹ disas…² state decla…³ declarationDate     fyDec…⁴ incid…⁵ decla…⁶
   <chr>         <dbl> <chr> <chr>   <dttm>                <dbl> <chr>   <chr>  
 1 DR-4627-DE     4627 DE    DR      2021-10-24 00:00:00    2022 Hurric… REMNAN…
 2 DR-4626-MS     4626 MS    DR      2021-10-22 00:00:00    2022 Hurric… HURRIC…
 3 DR-4626-MS     4626 MS    DR      2021-10-22 00:00:00    2022 Hurric… HURRIC…
 4 DR-4626-MS     4626 MS    DR      2021-10-22 00:00:00    2022 Hurric… HURRIC…
 5 DR-4626-MS     4626 MS    DR      2021-10-22 00:00:00    2022 Hurric… HURRIC…
 6 DR-4626-MS     4626 MS    DR      2021-10-22 00:00:00    2022 Hurric… HURRIC…
 7 DR-4629-CT     4629 CT    DR      2021-10-30 00:00:00    2022 Hurric… REMNAN…
 8 DR-4629-CT     4629 CT    DR      2021-10-30 00:00:00    2022 Hurric… REMNAN…
 9 DR-4626-MS     4626 MS    DR      2021-10-22 00:00:00    2022 Hurric… HURRIC…
10 DR-4626-MS     4626 MS    DR      2021-10-22 00:00:00    2022 Hurric… HURRIC…
# … with 12,936 more rows, 16 more variables: ihProgramDeclared <dbl>,
#   iaProgramDeclared <dbl>, paProgramDeclared <dbl>, hmProgramDeclared <dbl>,
#   incidentBeginDate <dttm>, incidentEndDate <dttm>,
#   disasterCloseoutDate <dttm>, fipsStateCode <chr>, fipsCountyCode <chr>,
#   placeCode <dbl>, designatedArea <chr>, declarationRequestNumber <dbl>,
#   lastIAFilingDate <dttm>, hash <chr>, id <chr>, lastRefresh <dttm>, and
#   abbreviated variable names ¹​femaDeclarationString, ²​disasterNumber, …
…
What if you want to filter multiple items? Well, you’d have to use Boolean logic operators such as:

& means AND, in Boolean logic

| means OR, in Boolean logic

! means NOT, in Boolean logic

Illustrated

Multiple Filter in action 1

df

# A tibble: 63,698 × 24
   femaDecla…¹ disas…² state decla…³ declarationDate     fyDec…⁴ incid…⁵ decla…⁶
   <chr>         <dbl> <chr> <chr>   <dttm>                <dbl> <chr>   <chr>  
 1 FM-5444-TX     5444 TX    FM      2022-07-19 00:00:00    2022 Fire    CHALK …
 2 FM-5436-NE     5436 NE    FM      2022-04-23 00:00:00    2022 Fire    ROAD 7…
 3 FM-5444-TX     5444 TX    FM      2022-07-19 00:00:00    2022 Fire    CHALK …
 4 FM-5436-NE     5436 NE    FM      2022-04-23 00:00:00    2022 Fire    ROAD 7…
 5 FM-5436-NE     5436 NE    FM      2022-04-23 00:00:00    2022 Fire    ROAD 7…
 6 FM-5435-AZ     5435 AZ    FM      2022-04-19 00:00:00    2022 Fire    CROOKS…
 7 FM-5434-AZ     5434 AZ    FM      2022-04-19 00:00:00    2022 Fire    TUNNEL…
 8 FM-5433-NM     5433 NM    FM      2022-04-12 00:00:00    2022 Fire    NOGAL …
 9 FM-5432-NM     5432 NM    FM      2022-04-12 00:00:00    2022 Fire    MCBRID…
10 FM-5431-NM     5431 NM    FM      2022-04-12 00:00:00    2022 Fire    HERMIT…
# … with 63,688 more rows, 16 more variables: ihProgramDeclared <dbl>,
#   iaProgramDeclared <dbl>, paProgramDeclared <dbl>, hmProgramDeclared <dbl>,
#   incidentBeginDate <dttm>, incidentEndDate <dttm>,
#   disasterCloseoutDate <dttm>, fipsStateCode <chr>, fipsCountyCode <chr>,
#   placeCode <dbl>, designatedArea <chr>, declarationRequestNumber <dbl>,
#   lastIAFilingDate <dttm>, hash <chr>, id <chr>, lastRefresh <dttm>, and
#   abbreviated variable names ¹​femaDeclarationString, ²​disasterNumber, …

Multiple Filter in action 2

df %>% 
  filter(incidentType=="Hurricane" | incidentType == "Fire")

# A tibble: 16,558 × 24
   femaDecla…¹ disas…² state decla…³ declarationDate     fyDec…⁴ incid…⁵ decla…⁶
   <chr>         <dbl> <chr> <chr>   <dttm>                <dbl> <chr>   <chr>  
 1 FM-5444-TX     5444 TX    FM      2022-07-19 00:00:00    2022 Fire    CHALK …
 2 FM-5436-NE     5436 NE    FM      2022-04-23 00:00:00    2022 Fire    ROAD 7…
 3 FM-5444-TX     5444 TX    FM      2022-07-19 00:00:00    2022 Fire    CHALK …
 4 FM-5436-NE     5436 NE    FM      2022-04-23 00:00:00    2022 Fire    ROAD 7…
 5 FM-5436-NE     5436 NE    FM      2022-04-23 00:00:00    2022 Fire    ROAD 7…
 6 FM-5435-AZ     5435 AZ    FM      2022-04-19 00:00:00    2022 Fire    CROOKS…
 7 FM-5434-AZ     5434 AZ    FM      2022-04-19 00:00:00    2022 Fire    TUNNEL…
 8 FM-5433-NM     5433 NM    FM      2022-04-12 00:00:00    2022 Fire    NOGAL …
 9 FM-5432-NM     5432 NM    FM      2022-04-12 00:00:00    2022 Fire    MCBRID…
10 FM-5431-NM     5431 NM    FM      2022-04-12 00:00:00    2022 Fire    HERMIT…
# … with 16,548 more rows, 16 more variables: ihProgramDeclared <dbl>,
#   iaProgramDeclared <dbl>, paProgramDeclared <dbl>, hmProgramDeclared <dbl>,
#   incidentBeginDate <dttm>, incidentEndDate <dttm>,
#   disasterCloseoutDate <dttm>, fipsStateCode <chr>, fipsCountyCode <chr>,
#   placeCode <dbl>, designatedArea <chr>, declarationRequestNumber <dbl>,
#   lastIAFilingDate <dttm>, hash <chr>, id <chr>, lastRefresh <dttm>, and
#   abbreviated variable names ¹​femaDeclarationString, ²​disasterNumber, …

%in%

disaster_list <- c("Flood", "Hail", "Typhoon")

df %>% 
  filter(incidentType %in% disaster_list)

# A tibble: 10,692 × 24
   femaDecla…¹ disas…² state decla…³ declarationDate     fyDec…⁴ incid…⁵ decla…⁶
   <chr>         <dbl> <chr> <chr>   <dttm>                <dbl> <chr>   <chr>  
 1 DR-4659-MN     4659 MN    DR      2022-07-13 00:00:00    2022 Flood   SEVERE…
 2 DR-4659-MN     4659 MN    DR      2022-07-13 00:00:00    2022 Flood   SEVERE…
 3 DR-4659-MN     4659 MN    DR      2022-07-13 00:00:00    2022 Flood   SEVERE…
 4 DR-4659-MN     4659 MN    DR      2022-07-13 00:00:00    2022 Flood   SEVERE…
 5 DR-4655-MT     4655 MT    DR      2022-06-16 00:00:00    2022 Flood   SEVERE…
 6 DR-4659-MN     4659 MN    DR      2022-07-13 00:00:00    2022 Flood   SEVERE…
 7 DR-4650-WA     4650 WA    DR      2022-03-29 00:00:00    2022 Flood   SEVERE…
 8 DR-4650-WA     4650 WA    DR      2022-03-29 00:00:00    2022 Flood   SEVERE…
 9 DR-4650-WA     4650 WA    DR      2022-03-29 00:00:00    2022 Flood   SEVERE…
10 DR-4659-MN     4659 MN    DR      2022-07-13 00:00:00    2022 Flood   SEVERE…
# … with 10,682 more rows, 16 more variables: ihProgramDeclared <dbl>,
#   iaProgramDeclared <dbl>, paProgramDeclared <dbl>, hmProgramDeclared <dbl>,
#   incidentBeginDate <dttm>, incidentEndDate <dttm>,
#   disasterCloseoutDate <dttm>, fipsStateCode <chr>, fipsCountyCode <chr>,
#   placeCode <dbl>, designatedArea <chr>, declarationRequestNumber <dbl>,
#   lastIAFilingDate <dttm>, hash <chr>, id <chr>, lastRefresh <dttm>, and
#   abbreviated variable names ¹​femaDeclarationString, ²​disasterNumber, …
…
Select three

df %>% 
  select(femaDeclarationString, state, 
         declarationDate, incidentType)

# A tibble: 63,698 × 4
   femaDeclarationString state declarationDate     incidentType
   <chr>                 <chr> <dttm>              <chr>       
 1 FM-5444-TX            TX    2022-07-19 00:00:00 Fire        
 2 FM-5436-NE            NE    2022-04-23 00:00:00 Fire        
 3 FM-5444-TX            TX    2022-07-19 00:00:00 Fire        
 4 FM-5436-NE            NE    2022-04-23 00:00:00 Fire        
 5 FM-5436-NE            NE    2022-04-23 00:00:00 Fire        
 6 FM-5435-AZ            AZ    2022-04-19 00:00:00 Fire        
 7 FM-5434-AZ            AZ    2022-04-19 00:00:00 Fire        
 8 FM-5433-NM            NM    2022-04-12 00:00:00 Fire        
 9 FM-5432-NM            NM    2022-04-12 00:00:00 Fire        
10 FM-5431-NM            NM    2022-04-12 00:00:00 Fire        
# … with 63,688 more rows

slice()

df %>% 
  arrange(desc(declarationDate)) %>% 
  filter(incidentType=="Flood") %>% 
  select(state, declarationDate, designatedArea)

# A tibble: 10,562 × 3
   state declarationDate     designatedArea                                    
   <chr> <dttm>              <chr>                                             
 1 AK    2022-08-26 00:00:00 Iditarod Area Regional Educational Attendance Area
 2 AK    2022-08-26 00:00:00 Kuspuk Regional Educational Attendance Area       
 3 AK    2022-08-26 00:00:00 Copper River Regional Educational Attendance Area 
 4 MO    2022-08-08 00:00:00 St. Louis (County)                                
 5 MO    2022-08-08 00:00:00 St. Louis                                         
 6 MO    2022-08-08 00:00:00 Montgomery (County)                               
 7 MO    2022-08-08 00:00:00 St. Charles (County)                              
 8 KY    2022-07-29 00:00:00 Johnson (County)                                  
 9 KY    2022-07-29 00:00:00 Knott (County)                                    
10 KY    2022-07-29 00:00:00 Lincoln (County)                                  
# … with 10,552 more rows
…
extract year! month! day!

also convert strings into date format recognized by R

mutate() I

df 

# A tibble: 63,698 × 24
   femaDecla…¹ disas…² state decla…³ declarationDate     fyDec…⁴ incid…⁵ decla…⁶
   <chr>         <dbl> <chr> <chr>   <dttm>                <dbl> <chr>   <chr>  
 1 FM-5444-TX     5444 TX    FM      2022-07-19 00:00:00    2022 Fire    CHALK …
 2 FM-5436-NE     5436 NE    FM      2022-04-23 00:00:00    2022 Fire    ROAD 7…
 3 FM-5444-TX     5444 TX    FM      2022-07-19 00:00:00    2022 Fire    CHALK …
 4 FM-5436-NE     5436 NE    FM      2022-04-23 00:00:00    2022 Fire    ROAD 7…
 5 FM-5436-NE     5436 NE    FM      2022-04-23 00:00:00    2022 Fire    ROAD 7…
 6 FM-5435-AZ     5435 AZ    FM      2022-04-19 00:00:00    2022 Fire    CROOKS…
 7 FM-5434-AZ     5434 AZ    FM      2022-04-19 00:00:00    2022 Fire    TUNNEL…
 8 FM-5433-NM     5433 NM    FM      2022-04-12 00:00:00    2022 Fire    NOGAL …
 9 FM-5432-NM     5432 NM    FM      2022-04-12 00:00:00    2022 Fire    MCBRID…
10 FM-5431-NM     5431 NM    FM      2022-04-12 00:00:00    2022 Fire    HERMIT…
# … with 63,688 more rows, 16 more variables: ihProgramDeclared <dbl>,
#   iaProgramDeclared <dbl>, paProgramDeclared <dbl>, hmProgramDeclared <dbl>,
#   incidentBeginDate <dttm>, incidentEndDate <dttm>,
#   disasterCloseoutDate <dttm>, fipsStateCode <chr>, fipsCountyCode <chr>,
#   placeCode <dbl>, designatedArea <chr>, declarationRequestNumber <dbl>,
#   lastIAFilingDate <dttm>, hash <chr>, id <chr>, lastRefresh <dttm>, and
#   abbreviated variable names ¹​femaDeclarationString, ²​disasterNumber, …

mutate() II

df %>% 
  select(femaDeclarationString, state, 
         declarationDate, incidentType) 

# A tibble: 63,698 × 4
   femaDeclarationString state declarationDate     incidentType
   <chr>                 <chr> <dttm>              <chr>       
 1 FM-5444-TX            TX    2022-07-19 00:00:00 Fire        
 2 FM-5436-NE            NE    2022-04-23 00:00:00 Fire        
 3 FM-5444-TX            TX    2022-07-19 00:00:00 Fire        
 4 FM-5436-NE            NE    2022-04-23 00:00:00 Fire        
 5 FM-5436-NE            NE    2022-04-23 00:00:00 Fire        
 6 FM-5435-AZ            AZ    2022-04-19 00:00:00 Fire        
 7 FM-5434-AZ            AZ    2022-04-19 00:00:00 Fire        
 8 FM-5433-NM            NM    2022-04-12 00:00:00 Fire        
 9 FM-5432-NM            NM    2022-04-12 00:00:00 Fire        
10 FM-5431-NM            NM    2022-04-12 00:00:00 Fire        
# … with 63,688 more rows

mutate() III

df %>% 
  select(femaDeclarationString, state, 
         declarationDate, incidentType) %>% 
  mutate(year=year(declarationDate))

# A tibble: 63,698 × 5
   femaDeclarationString state declarationDate     incidentType  year
   <chr>                 <chr> <dttm>              <chr>        <dbl>
 1 FM-5444-TX            TX    2022-07-19 00:00:00 Fire          2022
 2 FM-5436-NE            NE    2022-04-23 00:00:00 Fire          2022
 3 FM-5444-TX            TX    2022-07-19 00:00:00 Fire          2022
 4 FM-5436-NE            NE    2022-04-23 00:00:00 Fire          2022
 5 FM-5436-NE            NE    2022-04-23 00:00:00 Fire          2022
 6 FM-5435-AZ            AZ    2022-04-19 00:00:00 Fire          2022
 7 FM-5434-AZ            AZ    2022-04-19 00:00:00 Fire          2022
 8 FM-5433-NM            NM    2022-04-12 00:00:00 Fire          2022
 9 FM-5432-NM            NM    2022-04-12 00:00:00 Fire          2022
10 FM-5431-NM            NM    2022-04-12 00:00:00 Fire          2022
# … with 63,688 more rows

summarize() I

df 

# A tibble: 63,698 × 24
   femaDecla…¹ disas…² state decla…³ declarationDate     fyDec…⁴ incid…⁵ decla…⁶
   <chr>         <dbl> <chr> <chr>   <dttm>                <dbl> <chr>   <chr>  
 1 FM-5444-TX     5444 TX    FM      2022-07-19 00:00:00    2022 Fire    CHALK …
 2 FM-5436-NE     5436 NE    FM      2022-04-23 00:00:00    2022 Fire    ROAD 7…
 3 FM-5444-TX     5444 TX    FM      2022-07-19 00:00:00    2022 Fire    CHALK …
 4 FM-5436-NE     5436 NE    FM      2022-04-23 00:00:00    2022 Fire    ROAD 7…
 5 FM-5436-NE     5436 NE    FM      2022-04-23 00:00:00    2022 Fire    ROAD 7…
 6 FM-5435-AZ     5435 AZ    FM      2022-04-19 00:00:00    2022 Fire    CROOKS…
 7 FM-5434-AZ     5434 AZ    FM      2022-04-19 00:00:00    2022 Fire    TUNNEL…
 8 FM-5433-NM     5433 NM    FM      2022-04-12 00:00:00    2022 Fire    NOGAL …
 9 FM-5432-NM     5432 NM    FM      2022-04-12 00:00:00    2022 Fire    MCBRID…
10 FM-5431-NM     5431 NM    FM      2022-04-12 00:00:00    2022 Fire    HERMIT…
# … with 63,688 more rows, 16 more variables: ihProgramDeclared <dbl>,
#   iaProgramDeclared <dbl>, paProgramDeclared <dbl>, hmProgramDeclared <dbl>,
#   incidentBeginDate <dttm>, incidentEndDate <dttm>,
#   disasterCloseoutDate <dttm>, fipsStateCode <chr>, fipsCountyCode <chr>,
#   placeCode <dbl>, designatedArea <chr>, declarationRequestNumber <dbl>,
#   lastIAFilingDate <dttm>, hash <chr>, id <chr>, lastRefresh <dttm>, and
#   abbreviated variable names ¹​femaDeclarationString, ²​disasterNumber, …
…
# A tibble: 1 × 1
  disasters
      <int>
1     63698

group_by() I

df %>% 
  select(femaDeclarationString, state, 
         declarationDate, incidentType) %>% 
  mutate(year=year(declarationDate))

# A tibble: 63,698 × 5
   femaDeclarationString state declarationDate     incidentType  year
   <chr>                 <chr> <dttm>              <chr>        <dbl>
 1 FM-5444-TX            TX    2022-07-19 00:00:00 Fire          2022
 2 FM-5436-NE            NE    2022-04-23 00:00:00 Fire          2022
 3 FM-5444-TX            TX    2022-07-19 00:00:00 Fire          2022
 4 FM-5436-NE            NE    2022-04-23 00:00:00 Fire          2022
 5 FM-5436-NE            NE    2022-04-23 00:00:00 Fire          2022
 6 FM-5435-AZ            AZ    2022-04-19 00:00:00 Fire          2022
 7 FM-5434-AZ            AZ    2022-04-19 00:00:00 Fire          2022
 8 FM-5433-NM            NM    2022-04-12 00:00:00 Fire          2022
 9 FM-5432-NM            NM    2022-04-12 00:00:00 Fire          2022
10 FM-5431-NM            NM    2022-04-12 00:00:00 Fire          2022
# … with 63,688 more rows

group_by() II

df %>% 
  select(femaDeclarationString, state, 
         declarationDate, incidentType) %>% 
  mutate(year=year(declarationDate)) %>% 
  group_by(state) %>% 
  summarize(disasters=n())

# A tibble: 59 × 2
   state disasters
   <chr>     <int>
 1 AK          318
 2 AL         1652
 3 AR         1593
 4 AS           76
 5 AZ          334
 6 CA         1470
 7 CO          646
 8 CT          255
 9 DC           23
10 DE           53
# … with 49 more rows

group_by() III

df %>% 
  select(femaDeclarationString, state, 
         declarationDate, incidentType) %>% 
  mutate(year=year(declarationDate)) %>% 
  group_by(incidentType) %>% 
  summarize(disasters=n())

# A tibble: 23 × 2
   incidentType    disasters
   <chr>               <int>
 1 Biological           7857
 2 Chemical                9
 3 Coastal Storm         638
 4 Dam/Levee Break        13
 5 Drought              1292
 6 Earthquake            227
 7 Fire                 3612
 8 Fishing Losses         42
 9 Flood               10562
10 Freezing              301
# … with 13 more rows
…
