USC Center for Health Journalism
…
---
count: false

.panel1-disney3-auto[

```r
*disney
```
]
 
.panel2-disney3-auto[

```
# A tibble: 579 × 6
   movie_title                     release_date genre    MPAA_…¹ total…² infla…³
   <chr>                           <date>       <chr>    <chr>     <dbl>   <dbl>
 1 Snow White and the Seven Dwarfs 1937-12-21   Musical  G        1.85e8  5.23e9
 2 Pinocchio                       1940-02-09   Adventu… G        8.43e7  2.19e9
 3 Fantasia                        1940-11-13   Musical  G        8.33e7  2.19e9
 4 Song of the South               1946-11-12   Adventu… G        6.5 e7  1.08e9
 5 Cinderella                      1950-02-15   Drama    G        8.5 e7  9.21e8
 6 20,000 Leagues Under the Sea    1954-12-23   Adventu… <NA>     2.82e7  5.28e8
 7 Lady and the Tramp              1955-06-22   Drama    G        9.36e7  1.24e9
 8 Sleeping Beauty                 1959-01-29   Drama    <NA>     9.46e6  2.15e7
 9 101 Dalmatians                  1961-01-25   Comedy   G        1.53e8  1.36e9
10 The Absent Minded Professor     1961-03-16   Comedy   <NA>     2.54e7  3.10e8
# … with 569 more rows, and abbreviated variable names ¹​MPAA_rating,
#   ²​total_gross, ³​inflation_adjusted_gross
```
…
---
count: false

.panel1-disney4-auto[

```r
*disney
```
]
 
.panel2-disney4-auto[

```
# A tibble: 579 × 6
   movie_title                     release_date genre    MPAA_…¹ total…² infla…³
   <chr>                           <date>       <chr>    <chr>     <dbl>   <dbl>
 1 Snow White and the Seven Dwarfs 1937-12-21   Musical  G        1.85e8  5.23e9
 2 Pinocchio                       1940-02-09   Adventu… G        8.43e7  2.19e9
 3 Fantasia                        1940-11-13   Musical  G        8.33e7  2.19e9
 4 Song of the South               1946-11-12   Adventu… G        6.5 e7  1.08e9
 5 Cinderella                      1950-02-15   Drama    G        8.5 e7  9.21e8
 6 20,000 Leagues Under the Sea    1954-12-23   Adventu… <NA>     2.82e7  5.28e8
 7 Lady and the Tramp              1955-06-22   Drama    G        9.36e7  1.24e9
 8 Sleeping Beauty                 1959-01-29   Drama    <NA>     9.46e6  2.15e7
 9 101 Dalmatians                  1961-01-25   Comedy   G        1.53e8  1.36e9
10 The Absent Minded Professor     1961-03-16   Comedy   <NA>     2.54e7  3.10e8
# … with 569 more rows, and abbreviated variable names ¹​MPAA_rating,
#   ²​total_gross, ³​inflation_adjusted_gross
```
…
---
count: false

.panel1-disney5-auto[

```r
*disney
```
]
 
.panel2-disney5-auto[

```
# A tibble: 579 × 6
   movie_title                     release_date genre    MPAA_…¹ total…² infla…³
   <chr>                           <date>       <chr>    <chr>     <dbl>   <dbl>
 1 Snow White and the Seven Dwarfs 1937-12-21   Musical  G        1.85e8  5.23e9
 2 Pinocchio                       1940-02-09   Adventu… G        8.43e7  2.19e9
 3 Fantasia                        1940-11-13   Musical  G        8.33e7  2.19e9
 4 Song of the South               1946-11-12   Adventu… G        6.5 e7  1.08e9
 5 Cinderella                      1950-02-15   Drama    G        8.5 e7  9.21e8
 6 20,000 Leagues Under the Sea    1954-12-23   Adventu… <NA>     2.82e7  5.28e8
 7 Lady and the Tramp              1955-06-22   Drama    G        9.36e7  1.24e9
 8 Sleeping Beauty                 1959-01-29   Drama    <NA>     9.46e6  2.15e7
 9 101 Dalmatians                  1961-01-25   Comedy   G        1.53e8  1.36e9
10 The Absent Minded Professor     1961-03-16   Comedy   <NA>     2.54e7  3.10e8
# … with 569 more rows, and abbreviated variable names ¹​MPAA_rating,
#   ²​total_gross, ³​inflation_adjusted_gross
```
…
---
count: false

.panel1-disney6-auto[

```r
*disney
```
]
 
.panel2-disney6-auto[

```
# A tibble: 579 × 6
   movie_title                     release_date genre    MPAA_…¹ total…² infla…³
   <chr>                           <date>       <chr>    <chr>     <dbl>   <dbl>
 1 Snow White and the Seven Dwarfs 1937-12-21   Musical  G        1.85e8  5.23e9
 2 Pinocchio                       1940-02-09   Adventu… G        8.43e7  2.19e9
 3 Fantasia                        1940-11-13   Musical  G        8.33e7  2.19e9
 4 Song of the South               1946-11-12   Adventu… G        6.5 e7  1.08e9
 5 Cinderella                      1950-02-15   Drama    G        8.5 e7  9.21e8
 6 20,000 Leagues Under the Sea    1954-12-23   Adventu… <NA>     2.82e7  5.28e8
 7 Lady and the Tramp              1955-06-22   Drama    G        9.36e7  1.24e9
 8 Sleeping Beauty                 1959-01-29   Drama    <NA>     9.46e6  2.15e7
 9 101 Dalmatians                  1961-01-25   Comedy   G        1.53e8  1.36e9
10 The Absent Minded Professor     1961-03-16   Comedy   <NA>     2.54e7  3.10e8
# … with 569 more rows, and abbreviated variable names ¹​MPAA_rating,
#   ²​total_gross, ³​inflation_adjusted_gross
```
…
---
count: false

.panel1-disney7-auto[

```r
*disney
```
]
 
.panel2-disney7-auto[

```
# A tibble: 579 × 6
   movie_title                     release_date genre    MPAA_…¹ total…² infla…³
   <chr>                           <date>       <chr>    <chr>     <dbl>   <dbl>
 1 Snow White and the Seven Dwarfs 1937-12-21   Musical  G        1.85e8  5.23e9
 2 Pinocchio                       1940-02-09   Adventu… G        8.43e7  2.19e9
 3 Fantasia                        1940-11-13   Musical  G        8.33e7  2.19e9
 4 Song of the South               1946-11-12   Adventu… G        6.5 e7  1.08e9
 5 Cinderella                      1950-02-15   Drama    G        8.5 e7  9.21e8
 6 20,000 Leagues Under the Sea    1954-12-23   Adventu… <NA>     2.82e7  5.28e8
 7 Lady and the Tramp              1955-06-22   Drama    G        9.36e7  1.24e9
 8 Sleeping Beauty                 1959-01-29   Drama    <NA>     9.46e6  2.15e7
 9 101 Dalmatians                  1961-01-25   Comedy   G        1.53e8  1.36e9
10 The Absent Minded Professor     1961-03-16   Comedy   <NA>     2.54e7  3.10e8
# … with 569 more rows, and abbreviated variable names ¹​MPAA_rating,
#   ²​total_gross, ³​inflation_adjusted_gross
```
…
---
count: false

.panel1-disney7a-auto[

```r
*disney
```
]
 
.panel2-disney7a-auto[

```
# A tibble: 579 × 6
   movie_title                     release_date genre    MPAA_…¹ total…² infla…³
   <chr>                           <date>       <chr>    <chr>     <dbl>   <dbl>
 1 Snow White and the Seven Dwarfs 1937-12-21   Musical  G        1.85e8  5.23e9
 2 Pinocchio                       1940-02-09   Adventu… G        8.43e7  2.19e9
 3 Fantasia                        1940-11-13   Musical  G        8.33e7  2.19e9
 4 Song of the South               1946-11-12   Adventu… G        6.5 e7  1.08e9
 5 Cinderella                      1950-02-15   Drama    G        8.5 e7  9.21e8
 6 20,000 Leagues Under the Sea    1954-12-23   Adventu… <NA>     2.82e7  5.28e8
 7 Lady and the Tramp              1955-06-22   Drama    G        9.36e7  1.24e9
 8 Sleeping Beauty                 1959-01-29   Drama    <NA>     9.46e6  2.15e7
 9 101 Dalmatians                  1961-01-25   Comedy   G        1.53e8  1.36e9
10 The Absent Minded Professor     1961-03-16   Comedy   <NA>     2.54e7  3.10e8
# … with 569 more rows, and abbreviated variable names ¹​MPAA_rating,
#   ²​total_gross, ³​inflation_adjusted_gross
```
…
---
count: false

.panel1-disney8-auto[

```r
*disney
```
]
 
.panel2-disney8-auto[

```
# A tibble: 579 × 6
   movie_title                     release_date genre    MPAA_…¹ total…² infla…³
   <chr>                           <date>       <chr>    <chr>     <dbl>   <dbl>
 1 Snow White and the Seven Dwarfs 1937-12-21   Musical  G        1.85e8  5.23e9
 2 Pinocchio                       1940-02-09   Adventu… G        8.43e7  2.19e9
 3 Fantasia                        1940-11-13   Musical  G        8.33e7  2.19e9
 4 Song of the South               1946-11-12   Adventu… G        6.5 e7  1.08e9
 5 Cinderella                      1950-02-15   Drama    G        8.5 e7  9.21e8
 6 20,000 Leagues Under the Sea    1954-12-23   Adventu… <NA>     2.82e7  5.28e8
 7 Lady and the Tramp              1955-06-22   Drama    G        9.36e7  1.24e9
 8 Sleeping Beauty                 1959-01-29   Drama    <NA>     9.46e6  2.15e7
 9 101 Dalmatians                  1961-01-25   Comedy   G        1.53e8  1.36e9
10 The Absent Minded Professor     1961-03-16   Comedy   <NA>     2.54e7  3.10e8
# … with 569 more rows, and abbreviated variable names ¹​MPAA_rating,
#   ²​total_gross, ³​inflation_adjusted_gross
```
…
